[
  {
    "path": "/",
    "page": "./pages/home",
    "chunk": "main"
  },
  {
    "path": "/error",
    "page": "./pages/error",
    "chunk": "main"
  },
  {
    "path": "/login",
    "page": "./pages/login",
    "chunk": "main"
  },
  {
    "path": "/about",
    "page": "./pages/about"
  },
  {
    "path": "/tasks/:status(pending|completed)?",
    "page": "./pages/home"
  }
]
